<svg xmlns="http://www.w3.org/2000/svg" width="25.375" height="29" viewBox="0 0 25.375 29">
  <path id="calendar-day" d="M22.656,3.625H19.938V.453A.454.454,0,0,0,19.484,0h-.906a.454.454,0,0,0-.453.453V3.625H7.25V.453A.454.454,0,0,0,6.8,0H5.891a.454.454,0,0,0-.453.453V3.625H2.719A2.719,2.719,0,0,0,0,6.344V26.281A2.719,2.719,0,0,0,2.719,29H22.656a2.719,2.719,0,0,0,2.719-2.719V6.344A2.719,2.719,0,0,0,22.656,3.625Zm.906,22.656a.909.909,0,0,1-.906.906H2.719a.909.909,0,0,1-.906-.906V10.875h21.75Zm0-17.219H1.813V6.344a.909.909,0,0,1,.906-.906H22.656a.909.909,0,0,1,.906.906ZM6.344,21.75h5.438a.909.909,0,0,0,.906-.906V15.406a.909.909,0,0,0-.906-.906H6.344a.909.909,0,0,0-.906.906v5.438A.909.909,0,0,0,6.344,21.75Zm.906-5.437h3.625v3.625H7.25Z" fill="#181c32"/>
</svg>
