<svg xmlns="http://www.w3.org/2000/svg" width="29" height="29" viewBox="0 0 29 29">
  <path id="comment-alt-dollar" d="M25.375,0H3.625A3.625,3.625,0,0,0,0,3.625V19.938a3.625,3.625,0,0,0,3.625,3.625H9.063v4.757A.68.68,0,0,0,9.745,29a.67.67,0,0,0,.4-.134l7.073-5.3h8.156A3.625,3.625,0,0,0,29,19.938V3.625A3.625,3.625,0,0,0,25.375,0Zm1.813,19.938a1.815,1.815,0,0,1-1.812,1.813h-8.76l-.483.362-5.257,3.941v-4.3H3.625a1.815,1.815,0,0,1-1.812-1.812V3.625A1.815,1.815,0,0,1,3.625,1.813h21.75a1.815,1.815,0,0,1,1.813,1.813Zm-10.765-8.55-3.345-.955a1.16,1.16,0,0,1,.317-2.276h2.091a2.169,2.169,0,0,1,1.282.415.437.437,0,0,0,.557-.066l.647-.647a.461.461,0,0,0-.056-.693,3.97,3.97,0,0,0-2.43-.822h-.078V4.984a.453.453,0,0,0-.453-.453h-.906a.453.453,0,0,0-.453.453V6.344h-.2A2.976,2.976,0,0,0,10.435,9.6a3.1,3.1,0,0,0,2.291,2.618l3.2.912a1.16,1.16,0,0,1-.317,2.276H13.516a2.169,2.169,0,0,1-1.282-.415.437.437,0,0,0-.557.066l-.647.647a.461.461,0,0,0,.056.693,3.97,3.97,0,0,0,2.43.822h.078v1.359a.453.453,0,0,0,.453.453h.906a.453.453,0,0,0,.453-.453V17.218h.077a3.067,3.067,0,0,0,2.929-1.992,2.981,2.981,0,0,0-1.99-3.839Z" fill="#181c32"/>
</svg>
