<svg xmlns="http://www.w3.org/2000/svg" width="30.767" height="27.348" viewBox="0 0 30.767 27.348">
  <path id="file-export" d="M30.3,15.164l-3.834-3.641a1.523,1.523,0,0,0-1.647-.287,1.436,1.436,0,0,0-.891,1.334v2.814H20.511V7.049a2.574,2.574,0,0,0-.753-1.816L15.277.753A2.564,2.564,0,0,0,13.467,0H2.563A2.572,2.572,0,0,0,0,2.569V24.784a2.564,2.564,0,0,0,2.563,2.563H17.947a2.564,2.564,0,0,0,2.563-2.563V18.8H18.8v5.983a.857.857,0,0,1-.855.855H2.563a.857.857,0,0,1-.855-.855V2.569a.861.861,0,0,1,.855-.859h9.4V7.268a1.276,1.276,0,0,0,1.282,1.278H18.8v6.837H8.973a.427.427,0,0,0-.427.427v.855a.427.427,0,0,0,.427.427H23.929v2.813a1.437,1.437,0,0,0,.891,1.334,1.526,1.526,0,0,0,1.649-.288L30.3,17.313a1.474,1.474,0,0,0,0-2.149ZM13.675,6.841v-5.1a.84.84,0,0,1,.4.224l4.48,4.48a.84.84,0,0,1,.224.4h-5.1ZM25.638,19.383v-6.29l3.312,3.145Z" fill="#181c32"/>
</svg>
