<svg xmlns="http://www.w3.org/2000/svg" width="29" height="29" viewBox="0 0 29 29">
  <path id="user-circle" d="M14.5,8A14.5,14.5,0,1,0,29,22.5,14.5,14.5,0,0,0,14.5,8Zm7.484,24.65a12.536,12.536,0,0,1-14.968,0v-.8a3.745,3.745,0,0,1,3.742-3.742c.649,0,1.608.667,3.742.667s3.087-.667,3.742-.667a3.745,3.745,0,0,1,3.742,3.742Zm1.789-1.608a5.6,5.6,0,0,0-5.531-4.8c-1.2,0-1.777.667-3.742.667s-2.537-.667-3.742-.667a5.6,5.6,0,0,0-5.531,4.8,12.629,12.629,0,1,1,18.546,0ZM14.5,14.548a5.145,5.145,0,1,0,5.145,5.145A5.145,5.145,0,0,0,14.5,14.548Zm0,8.419a3.274,3.274,0,1,1,3.274-3.274A3.276,3.276,0,0,1,14.5,22.968Z" transform="translate(0 -8)" fill="#181c32"/>
</svg>
