<svg xmlns="http://www.w3.org/2000/svg" width="34.03" height="27.224" viewBox="0 0 34.03 27.224">
  <path id="user-clock" d="M11.91,13.612A6.806,6.806,0,1,0,5.1,6.806,6.805,6.805,0,0,0,11.91,13.612Zm0-11.91a5.1,5.1,0,1,1-5.1,5.1A5.113,5.113,0,0,1,11.91,1.7ZM26.373,11.91a7.657,7.657,0,1,0,7.657,7.657A7.652,7.652,0,0,0,26.373,11.91Zm0,13.612a5.955,5.955,0,1,1,5.955-5.955A5.959,5.959,0,0,1,26.373,25.522Zm-7.221,0H2.552a.853.853,0,0,1-.851-.851V22.46a5.448,5.448,0,0,1,5.445-5.445c1.042,0,2.079.851,4.764.851s3.722-.851,4.764-.851a5.875,5.875,0,0,1,.686.069,9.2,9.2,0,0,1,.622-1.638,7.028,7.028,0,0,0-1.3-.133c-1.526,0-2.26.851-4.764.851s-3.233-.851-4.764-.851A7.149,7.149,0,0,0,0,22.46v2.212a2.553,2.553,0,0,0,2.552,2.552H21a9.345,9.345,0,0,1-1.845-1.7ZM29.26,18.716H27.224V15.829a.52.52,0,0,0-.516-.516h-.67a.52.52,0,0,0-.516.516V19.9a.52.52,0,0,0,.516.516H29.26a.52.52,0,0,0,.516-.516v-.67a.52.52,0,0,0-.516-.516Z" fill="#181c32"/>
</svg>
