<svg xmlns="http://www.w3.org/2000/svg" width="31.222" height="24.98" viewBox="0 0 31.222 24.98">
  <path id="warehouse" d="M24.978,10.88H6.244a1.563,1.563,0,0,0-1.561,1.561v12.1a.391.391,0,0,0,.39.39h.781a.391.391,0,0,0,.39-.39V21.808H24.978V24.54a.391.391,0,0,0,.39.39h.781a.391.391,0,0,0,.39-.39v-12.1A1.563,1.563,0,0,0,24.978,10.88Zm0,9.367H6.244V17.125H24.978Zm0-4.683H6.244V12.441H24.978Zm4.81-9.84L16.519.133a2.342,2.342,0,0,0-1.815,0L1.434,5.724A2.334,2.334,0,0,0,0,7.88V24.54a.391.391,0,0,0,.39.39h.781a.391.391,0,0,0,.39-.39V7.88a.781.781,0,0,1,.478-.722L15.309,1.567a.767.767,0,0,1,.6,0L29.183,7.158a.776.776,0,0,1,.478.722V24.54a.391.391,0,0,0,.39.39h.781a.391.391,0,0,0,.39-.39V7.88a2.334,2.334,0,0,0-1.434-2.156Z" transform="translate(0 0.05)" fill="#181c32"/>
</svg>
