<svg xmlns="http://www.w3.org/2000/svg" width="29" height="29" viewBox="0 0 29 29">
  <path id="wrench" d="M28.738,6.483a1.543,1.543,0,0,0-2.589-.715L22.531,9.386l-2.506-.417-.418-2.506,3.618-3.618A1.544,1.544,0,0,0,22.5.255,8.511,8.511,0,0,0,12.2,10.7L1.254,21.652a4.3,4.3,0,1,0,6.087,6.086L18.281,16.8A8.524,8.524,0,0,0,28.738,6.483ZM25.206,13.32a6.7,6.7,0,0,1-6.9,1.6l-.531-.178L6.06,26.457a2.551,2.551,0,0,1-3.524,0,2.5,2.5,0,0,1,0-3.524L14.261,11.21l-.175-.529a6.7,6.7,0,0,1,7.507-8.767L17.668,5.842l.782,4.7,4.7.783L27.08,7.4A6.684,6.684,0,0,1,25.206,13.32ZM4.529,23.561a.906.906,0,1,0,.906.906A.906.906,0,0,0,4.529,23.561Z" transform="translate(0.003 0.001)" fill="#181c32"/>
</svg>
