<svg xmlns="http://www.w3.org/2000/svg" width="39.048" height="44.638" viewBox="0 0 39.048 44.638">
  <g id="customer-service-agent" transform="translate(0 0)">
    <path id="Path_68473" data-name="Path 68473" d="M39.905,36.116A3.563,3.563,0,0,0,40.217,31a3.454,3.454,0,0,0,.215-1.2A3.6,3.6,0,0,0,38.9,26.866a2.749,2.749,0,0,0,.082-.668,2.877,2.877,0,0,0-1.765-2.653.745.745,0,0,1-.4-.7v-9.28a12.412,12.412,0,0,0-11.7-12.551,12.231,12.231,0,0,0-9.078,3.369,12.108,12.108,0,0,0-3.808,8.857v1.84a2.868,2.868,0,0,0-1.446,2.48V19a2.868,2.868,0,0,0,1.446,2.48v1.366a.746.746,0,0,1-.4.7A2.876,2.876,0,0,0,10.062,26.2a2.749,2.749,0,0,0,.082.668A3.6,3.6,0,0,0,8.616,29.8,3.454,3.454,0,0,0,8.831,31a3.563,3.563,0,0,0,.312,5.12A11.378,11.378,0,0,0,5,44.917v.72H44.048v-.72A11.378,11.378,0,0,0,39.905,36.116ZM13.677,13.239A10.826,10.826,0,0,1,25.049,2.452,10.972,10.972,0,0,1,35.37,13.564v9.28a2.167,2.167,0,0,0,1.286,2.027A1.439,1.439,0,0,1,37.54,26.2a1.413,1.413,0,0,1-.168.654l-.348.672.691.315A2.16,2.16,0,0,1,38.986,29.8a2.126,2.126,0,0,1-.274,1.024l-.289.527.469.377a2.139,2.139,0,0,1-.215,3.511,11.624,11.624,0,0,0-1.771-.912L29.488,31.3a2.151,2.151,0,0,1-1.349-2v-.517a13.313,13.313,0,0,0,5.785-10.976V15.4a2.167,2.167,0,0,0-2.169-2.16h-.122a6.748,6.748,0,0,1-5.446-2.77,2.08,2.08,0,0,0-3.325,0,6.748,6.748,0,0,1-5.446,2.77h-.122a2.166,2.166,0,0,0-2.036,1.44H13.677ZM32.427,37.47l-2.207,2.2,1.3,4.529H27.546l1.9-11.354,2.366.964ZM17.234,33.807l2.366-.964L21.5,44.2H17.529l1.3-4.529-2.207-2.2Zm3.807-8.329a2.166,2.166,0,0,0,2.036,1.44H25.97a2.16,2.16,0,1,0,0-4.32H23.078a2.166,2.166,0,0,0-2.036,1.44H18.335a11.856,11.856,0,0,1-1.765-6.227V15.4a.722.722,0,0,1,.723-.72h.122a8.2,8.2,0,0,0,6.619-3.365.655.655,0,0,1,.98,0,8.205,8.205,0,0,0,6.619,3.365h.122a.722.722,0,0,1,.723.72v2.413a11.9,11.9,0,0,1-7.954,11.225,11.943,11.943,0,0,1-5.148-3.558Zm1.313-.72a.722.722,0,0,1,.723-.72H25.97a.72.72,0,1,1,0,1.44H23.078A.722.722,0,0,1,22.355,24.758Zm-.026,4.893a13.466,13.466,0,0,0,1.966.829l.229.076.229-.076a13.547,13.547,0,0,0,1.966-.829,3.568,3.568,0,0,0,1.379,2.5l-.932,5.57H21.882l-.933-5.57A3.568,3.568,0,0,0,22.329,29.651Zm-.205,9.506h4.8L26.08,44.2H22.966Zm-9.892-21.6a1.445,1.445,0,0,1,1.446-1.44h1.446v1.693a13.331,13.331,0,0,0,.27,2.627H13.677A1.445,1.445,0,0,1,12.231,19Zm3.529,4.32a13.232,13.232,0,0,0,.913,2.16h-.827a2.167,2.167,0,0,1-2.169-2.16ZM9.339,33.4a2.141,2.141,0,0,1,.816-1.671l.469-.377-.289-.527a2.13,2.13,0,0,1-.274-1.025,2.161,2.161,0,0,1,1.273-1.96l.691-.315-.348-.672a1.4,1.4,0,0,1-.169-.654,1.439,1.439,0,0,1,.883-1.327,2.023,2.023,0,0,0,.782-.591,3.6,3.6,0,0,0,2.673,1.2h1.709a13.345,13.345,0,0,0,3.352,3.309V29.3a2.15,2.15,0,0,1-1.348,2l-7.418,3.022a11.59,11.59,0,0,0-1.771.912A2.15,2.15,0,0,1,9.339,33.4Zm3.352,2.261,2.971-1.21-.589,3.516L17.2,40.087l-1.18,4.11H13.677v-4.32H12.231V44.2H6.472A9.967,9.967,0,0,1,12.69,35.658ZM36.817,44.2v-4.32H35.37V44.2H33.024l-1.18-4.11,2.132-2.122-.589-3.516,2.971,1.21A9.968,9.968,0,0,1,42.576,44.2Z" transform="translate(-5 -0.999)"/>
    <path id="Path_68474" data-name="Path 68474" d="M2.819,1.864A7.583,7.583,0,0,1,1.289.213S.677-.187.241.109s-.148.917-.148.917A9.023,9.023,0,0,0,1.915,2.993,6.286,6.286,0,0,0,6.088,4.612H7.243a.717.717,0,0,0,.6-.741.662.662,0,0,0-.6-.7H6.088A4.269,4.269,0,0,1,2.819,1.864Z" transform="translate(26.906 8.65) rotate(-178)"/>
    <path id="Path_68475" data-name="Path 68475" d="M.876,0A.874.874,0,0,0,0,.876a.876.876,0,0,0,.876.876A.876.876,0,0,0,1.751.876.874.874,0,0,0,.876,0Zm0,0" transform="translate(28.003 10.937) rotate(-178)"/>
  </g>
</svg>
