<svg xmlns="http://www.w3.org/2000/svg" width="56" height="44.8" viewBox="0 0 56 44.8">
  <g id="Group_25199" data-name="Group 25199" transform="translate(0 0)">
    <g id="marketing" transform="translate(0 0)">
      <path id="Path_68424" data-name="Path 68424" d="M46.734,342.039v-4.333H45.292v4.333H37.563l2.951-1.966-1.344-2.015,2.973-1.11a.772.772,0,0,0,.12-.9c-.287-.466-1.034-.305-1.034-.305l-4.273,1.6,1.548,2.332-3.553,2.361h-.4l.543-1.131c.118-.244,2.057-4.283,3.475-7.471a6.949,6.949,0,0,1-1.234-2.231H30.928c-.16-.378-.3-.717-.409-1.008a3.588,3.588,0,0,0,1.735-2.753h0a13.336,13.336,0,0,0,1.965.832l.224.077.224-.077a13.465,13.465,0,0,0,1.965-.832,2.039,2.039,0,0,0,.929,1.656,3.024,3.024,0,0,1,.5-1.656s0-.078,0-.349v-.518a13.368,13.368,0,0,0,4.885-6.209h.174a3.616,3.616,0,0,0,3.613-3.612V310.98A12.3,12.3,0,0,0,34.448,298.7H22.164v.722a9.361,9.361,0,0,0,.262,2.167H19.865l.14.841a11.072,11.072,0,0,0,2.562,5.45,12.342,12.342,0,0,0-.4,3.1v5.779a3.616,3.616,0,0,0,3.613,3.611h.174a13.36,13.36,0,0,0,4.885,6.206v.518a2.157,2.157,0,0,1-1.344,2.005l-7.414,3.033a11.44,11.44,0,0,0-7.141,10.627v.722l32.274.018a.67.67,0,0,0,.582-.724.66.66,0,0,0-.582-.714ZM45.167,317.47a2.157,2.157,0,0,1-1.747,1.425,13.405,13.405,0,0,0,.423-3.328v-.843A2.155,2.155,0,0,1,45.167,317.47Zm-21.558-.712h0a2.164,2.164,0,0,1,1.445-2.034v.843a13.405,13.405,0,0,0,.423,3.328A2.164,2.164,0,0,1,23.609,316.758Zm0-2.867V310.98a10.922,10.922,0,0,1,.175-1.909,10.76,10.76,0,0,0,1.27.945v3.2A3.588,3.588,0,0,0,23.611,313.891Zm-2-10.851,1.281,0a9.408,9.408,0,0,0,8.67,5.777h5.058v-1.444h-5.06a7.958,7.958,0,0,1-7.917-7.223H34.448A10.85,10.85,0,0,1,45.292,310.98v2.911a3.605,3.605,0,0,0-1.512-.672,3.615,3.615,0,0,0-3.546-2.956H30.955A9.621,9.621,0,0,1,21.608,303.04Zm4.886,12.527H26.5V310.78a11.148,11.148,0,0,0,4.456.922h9.275A2.171,2.171,0,0,1,42.4,313.87v1.7a11.936,11.936,0,0,1-7.953,11.262A11.936,11.936,0,0,1,26.494,315.567Zm-2.885,26.474v-4.335H22.164v4.333H16.408a10,10,0,0,1,6.214-8.566h0l2.732-1.12-1.205,3.615,5.58,2.09-1.344,2.016,2.95,1.966Zm10.336,0-3.551-2.363,1.55-2.324-5.983-2.247,1.158-3.472,2.079-.85c1.109,2.846,4.445,9.8,4.6,10.124l.544,1.132Zm-2.39-9.392h5.784c-.939,2.118-2.157,4.711-2.894,6.269C33.712,337.359,32.494,334.765,31.555,332.649Z" transform="translate(-14.937 -298.701)"/>
    </g>
    <g id="promotion" transform="translate(23.723 20.645)">
      <g id="Group_25188" data-name="Group 25188">
        <g id="Group_25187" data-name="Group 25187">
          <path id="Path_68419" data-name="Path 68419" d="M66.954,330.961a6.5,6.5,0,0,0-7.691-9.8v-2.232a1.773,1.773,0,0,0-3.5-.4l-.288.131c-3.992,1.815-5.611,2.907-9.539,2.907H43.57a1.774,1.774,0,0,0-1.666,1.184H39.428v1.183a3.551,3.551,0,1,0,0,7.1v1.184H41.9a1.77,1.77,0,0,0,1.667,1.181h2.367c.192,0,.391,0,.591.008v7.858h5.918v-1l-.09-6.146a21.507,21.507,0,0,1,3.123,1.654l.288.131a1.773,1.773,0,0,0,3.5-.4v-2.232a6.46,6.46,0,0,0,6.864-1.344l-.818-.856a5.271,5.271,0,0,1-6.049.9v-9.51a5.317,5.317,0,0,1,6.721,7.818Zm-27.527-1.113a2.367,2.367,0,1,1,0-4.735Zm2.367,1.184H40.612v-7.1h1.183Zm3.551-7.1H44.166v1.183h1.179v4.735H44.166v1.184h1.179v1.184H43.57a.592.592,0,0,1-.591-.591v-8.289a.593.593,0,0,1,.591-.591h1.775Zm2.367,16.338V333.45c1.11.058,2.314.171,3.551.336v6.48Zm8-5.681c-3.948-1.723-5.219-2.291-9.185-2.367V331.03h1.184v-1.183H46.529v-4.735h1.184v-1.184H46.529v-1.19c3.965-.076,5.235-1.176,9.185-2.9Zm2.367.913a.592.592,0,1,1-1.184,0V318.929a.592.592,0,0,1,1.184,0Z" transform="translate(-35.877 -317.152)"/>
        </g>
      </g>
      <g id="Group_25190" data-name="Group 25190" transform="translate(12.835 4.678)">
        <g id="Group_25189" data-name="Group 25189">
          <path id="Path_68420" data-name="Path 68420" d="M52.513,321.328a18.424,18.424,0,0,1-5.177,1.614l.076,1.177a18.935,18.935,0,0,0,5.327-1.662Z" transform="translate(-47.336 -321.328)"/>
        </g>
      </g>
      <g id="Group_25192" data-name="Group 25192" transform="translate(23.977 5.919)">
        <g id="Group_25191" data-name="Group 25191">
          <path id="Path_68421" data-name="Path 68421" d="M59.06,325.987a.591.591,0,1,1,.591-.591h1.184a1.774,1.774,0,0,0-1.184-1.667v-1.293H58.468v1.293a1.771,1.771,0,0,0,.591,3.442.591.591,0,1,1-.591.591H57.284a1.771,1.771,0,0,0,1.184,1.667v1.3h1.183v-1.3a1.771,1.771,0,0,0-.591-3.442Z" transform="translate(-57.282 -322.436)"/>
        </g>
      </g>
      <g id="Group_25198" data-name="Group 25198" transform="translate(28.527 9.846)">
        <g id="Group_25197" data-name="Group 25197">
          <rect id="Rectangle_6107" data-name="Rectangle 6107" width="1.019" height="1.019"/>
        </g>
      </g>
    </g>
  </g>
</svg>
