<svg id="money_1_" data-name="money (1)" xmlns="http://www.w3.org/2000/svg" width="44.8" height="44.8" viewBox="0 0 44.8 44.8">
  <path id="Path_68430" data-name="Path 68430" d="M3.458,33.011l7.38-2.461v-1.5a7.973,7.973,0,0,1-3.316-4.528,3.6,3.6,0,0,1-3.187-3.57V15.174A10.832,10.832,0,0,1,25.641,12.4c.129-.145.25-.3.387-.434l4.1-4.1L27.139,3.687a2.147,2.147,0,0,1-.4-1.26V2.168A2.171,2.171,0,0,1,28.9,0a2.3,2.3,0,0,1,1.809.97c.315.359.441.476.722.476s.407-.116.723-.476a2.171,2.171,0,0,1,3.616,0c.314.359.44.476.72.476s.405-.116.719-.476A2.294,2.294,0,0,1,39.019,0a2.171,2.171,0,0,1,2.168,2.168v.259a2.149,2.149,0,0,1-.4,1.26L37.795,7.87l4.1,4.1A9.919,9.919,0,0,1,34.88,28.9H33.041a9.939,9.939,0,0,1-8.6-4.977,3.578,3.578,0,0,1-1.622.6,7.968,7.968,0,0,1-3.316,4.528v1.5l7.38,2.461a5.051,5.051,0,0,1,3.459,4.8V44.8H0V37.808A5.05,5.05,0,0,1,3.458,33.011ZM7.256,23c-.015-.2-.03-.4-.03-.6V18.92A2.154,2.154,0,0,0,7.256,23ZM15.174,5.781a9.4,9.4,0,0,0-9.394,9.394v2.909a3.577,3.577,0,0,1,1.445-.668V15.9H9.394a6.536,6.536,0,0,0,5.2-2.6l.578-.77.578.77a6.536,6.536,0,0,0,5.2,2.6h2.168v1.518a3.586,3.586,0,0,1,1.445.668V15.174A9.4,9.4,0,0,0,15.174,5.781ZM39.742,2.427V2.168a.723.723,0,0,0-.723-.723c-.28,0-.405.116-.719.476a2.17,2.17,0,0,1-3.615,0c-.314-.359-.439-.476-.72-.476s-.406.116-.722.476a2.173,2.173,0,0,1-3.618,0c-.316-.36-.441-.476-.723-.476a.723.723,0,0,0-.723.723v.259a.715.715,0,0,0,.134.42l3.127,4.379H36.48l3.127-4.379A.714.714,0,0,0,39.742,2.427Zm-6.7,25.031h1.839a8.474,8.474,0,0,0,5.992-14.467l-4.32-4.32H31.37l-4.32,4.32a8.485,8.485,0,0,0-1.08,1.34c.022.279.043.559.043.843v5.781a3.572,3.572,0,0,1-.529,1.855A8.491,8.491,0,0,0,33.042,27.458Zm-8.474-6.5a2.165,2.165,0,0,0-1.445-2.035V22.4c0,.2-.015.4-.03.6A2.164,2.164,0,0,0,24.568,20.955ZM21.677,22.4V17.342h-.723a7.99,7.99,0,0,1-5.781-2.494,7.99,7.99,0,0,1-5.781,2.494H8.671V22.4a6.5,6.5,0,0,0,13.006,0Zm-6.5,7.948a7.892,7.892,0,0,1-2.89-.552v.976l2.89,2.89,2.89-2.89V29.8A7.892,7.892,0,0,1,15.174,30.348Zm-6.5,10.116h1.445a3.62,3.62,0,0,1,3.54,2.89h3.036a3.619,3.619,0,0,1,3.54-2.89h1.445V36.129H8.671ZM28.9,37.808a3.608,3.608,0,0,0-2.47-3.427L18.982,31.9,16.2,34.684h6.927v5.781h1.445v-2.89h1.445V41.91H20.232A2.165,2.165,0,0,0,18.2,43.355H28.9ZM1.445,43.355H12.151a2.165,2.165,0,0,0-2.035-1.445H4.335V37.574H5.781v2.89H7.226V34.684h6.927L11.366,31.9,3.916,34.381a3.609,3.609,0,0,0-2.47,3.427Zm0,0" transform="translate(0)"/>
  <path id="Path_68435" data-name="Path 68435" d="M90.891,130.89a1.447,1.447,0,0,1,1.445,1.445h1.445a2.886,2.886,0,0,0-2.168-2.788V128H90.168v1.548a2.884,2.884,0,0,0,.723,5.678,1.445,1.445,0,1,1-1.445,1.445H88a2.886,2.886,0,0,0,2.168,2.788v1.548h1.445v-1.548a2.884,2.884,0,0,0-.723-5.678,1.445,1.445,0,1,1,0-2.89Zm0,0" transform="translate(-56.929 -116.439)"/>
  <path id="Path_68436" data-name="Path 68436" d="M2.817,2.746A7.578,7.578,0,0,0,1.288,4.4s-.612.4-1.047.1S.093,3.584.093,3.584A9.017,9.017,0,0,1,1.914,1.618,6.282,6.282,0,0,1,6.084,0H7.238a.716.716,0,0,1,.6.741.662.662,0,0,1-.6.7H6.084A4.266,4.266,0,0,0,2.817,2.746Z" transform="translate(44.475 19.361) rotate(133)"/>
  <path id="Path_68437" data-name="Path 68437" d="M.875,1.75A.873.873,0,0,1,0,.875.875.875,0,0,1,.875,0,.875.875,0,0,1,1.75.875a.873.873,0,0,1-.875.875Zm0,0" transform="translate(41.513 14.991) rotate(133)"/>
</svg>
