<svg xmlns="http://www.w3.org/2000/svg" width="26" height="20.8" viewBox="0 0 26 20.8">
  <path id="safe" d="M4.6,4A2.6,2.6,0,0,0,2,6.6V20.9a2.6,2.6,0,0,0,2.6,2.6v1.3H7.2V23.5H21.5v1.3h2.6V23.5a2.6,2.6,0,0,0,2.6-2.6V19.6H28V17H26.7V10.5H28V7.9H26.7V6.6A2.6,2.6,0,0,0,24.1,4H4.6m0,2.6H24.1V20.9H4.6V6.6M16.95,8.55a5.2,5.2,0,1,0,5.2,5.2,5.2,5.2,0,0,0-5.2-5.2M5.9,10.5V17H8.5V10.5H5.9m11.05.65a2.6,2.6,0,1,1-2.6,2.6A2.6,2.6,0,0,1,16.95,11.15Z" transform="translate(-2 -4)" fill="#213242"/>
</svg>
