<svg xmlns="http://www.w3.org/2000/svg" width="26" height="16.545" viewBox="0 0 26 16.545">
  <path id="checkbook" d="M5.727,15.636H22.273v1.182H5.727V15.636m18.909,3.545V8.545H3.364V19.182H24.636M1,5H27V21.545H1V5m4.727,5.909H14v2.364H5.727Z" transform="translate(-1 -5)" fill="#213242"/>
</svg>
