<svg xmlns="http://www.w3.org/2000/svg" width="26" height="28.889" viewBox="0 0 26 28.889">
  <path id="clipboard-text_4_" data-name="clipboard-text (4)" d="M23.222,12.556H8.778V9.667H23.222m0,8.667H8.778V15.444H23.222m-4.333,8.667H8.778V21.222H18.889M16,3.889a1.444,1.444,0,1,1-1.444,1.444A1.444,1.444,0,0,1,16,3.889m10.111,0H20.073a4.316,4.316,0,0,0-8.147,0H5.889A2.889,2.889,0,0,0,3,6.778V27a2.889,2.889,0,0,0,2.889,2.889H26.111A2.889,2.889,0,0,0,29,27V6.778A2.889,2.889,0,0,0,26.111,3.889Z" transform="translate(-3 -1)" fill="#213242"/>
</svg>
