<svg xmlns="http://www.w3.org/2000/svg" width="26" height="22.608" viewBox="0 0 26 22.608">
  <path id="account-clock" d="M11.886,15.417a7.9,7.9,0,1,1,.045,6.669H1V19.826c.068-1.289.95-2.34,2.645-3.188a14.833,14.833,0,0,1,6.4-1.334c.644,0,1.255.057,1.843.113h0M10.043,4A4.5,4.5,0,0,1,13.22,5.323a4.327,4.327,0,0,1,1.266,3.2,4.329,4.329,0,0,1-4.443,4.465A4.329,4.329,0,0,1,5.6,8.522a4.327,4.327,0,0,1,1.266-3.2A4.5,4.5,0,0,1,10.043,4m9.043,20.347A5.652,5.652,0,1,0,13.435,18.7a5.652,5.652,0,0,0,5.652,5.652M17.956,15.3h1.7v3.188l2.758,1.594-.848,1.47-3.606-2.08Z" transform="translate(-1 -4)" fill="#213242"/>
</svg>
